%YAML 1.1
%TAG !u! tag:unity3d.com,2011:
--- !u!114 &11400000
MonoBehaviour:
  m_ObjectHideFlags: 0
  m_CorrespondingSourceObject: {fileID: 0}
  m_PrefabInstance: {fileID: 0}
  m_PrefabAsset: {fileID: 0}
  m_GameObject: {fileID: 0}
  m_Enabled: 1
  m_EditorHideFlags: 0
  m_Script: {fileID: 11500000, guid: bfa289ba055302c458476237ccda2dd9, type: 3}
  m_Name: ExperimentManager
  m_EditorClassIdentifier: 
  manual: 0
  Scenes: []
  sceneSetting: 2
  participantId: 0
  participantIdShadow: 0
  sceneIndex: 0
  optionIndex: 0
  sceneSquare:
    order: 0
  optionSquare:
    order: 0
  endScene: 
  pauseScene: 
  progress: 0
  sceneQue: 
  path: 
